{
  "info": {
    "count": 41,
    "pages": 3,
    "next": "https://rickandmortyapi.com/api/episode/?page=3",
    "prev": "https://rickandmortyapi.com/api/episode/?page=1"
  },
  "results": [
    {
        "id": 12,
        "name": "A Rickle in Time",
        "air_date": "July 26, 2015",
        "episode": "S02E01",
        "characters": [
          "https://rickandmortyapi.com/api/character/1",
          "https://rickandmortyapi.com/api/character/2",
          "https://rickandmortyapi.com/api/character/3",
          "https://rickandmortyapi.com/api/character/4",
          "https://rickandmortyapi.com/api/character/5",
          "https://rickandmortyapi.com/api/character/11",
          "https://rickandmortyapi.com/api/character/64",
          "https://rickandmortyapi.com/api/character/237",
          "https://rickandmortyapi.com/api/character/313",
          "https://rickandmortyapi.com/api/character/437",
          "https://rickandmortyapi.com/api/character/438",
          "https://rickandmortyapi.com/api/character/439",
          "https://rickandmortyapi.com/api/character/440"
        ],
        "url": "https://rickandmortyapi.com/api/episode/12",
        "created": "2017-11-10T12:56:34.953Z"
      },
      {
        "id": 13,
        "name": "Mortynight Run",
        "air_date": "August 2, 2015",
        "episode": "S02E02",
        "characters": [
          "https://rickandmortyapi.com/api/character/1",
          "https://rickandmortyapi.com/api/character/2",
          "https://rickandmortyapi.com/api/character/5",
          "https://rickandmortyapi.com/api/character/23",
          "https://rickandmortyapi.com/api/character/28",
          "https://rickandmortyapi.com/api/character/34",
          "https://rickandmortyapi.com/api/character/106",
          "https://rickandmortyapi.com/api/character/122",
          "https://rickandmortyapi.com/api/character/129",
          "https://rickandmortyapi.com/api/character/131",
          "https://rickandmortyapi.com/api/character/133",
          "https://rickandmortyapi.com/api/character/136",
          "https://rickandmortyapi.com/api/character/174",
          "https://rickandmortyapi.com/api/character/180",
          "https://rickandmortyapi.com/api/character/196",
          "https://rickandmortyapi.com/api/character/207",
          "https://rickandmortyapi.com/api/character/242",
          "https://rickandmortyapi.com/api/character/257",
          "https://rickandmortyapi.com/api/character/282",
          "https://rickandmortyapi.com/api/character/309",
          "https://rickandmortyapi.com/api/character/311",
          "https://rickandmortyapi.com/api/character/362",
          "https://rickandmortyapi.com/api/character/386",
          "https://rickandmortyapi.com/api/character/393",
          "https://rickandmortyapi.com/api/character/436",
          "https://rickandmortyapi.com/api/character/441",
          "https://rickandmortyapi.com/api/character/442",
          "https://rickandmortyapi.com/api/character/443",
          "https://rickandmortyapi.com/api/character/444",
          "https://rickandmortyapi.com/api/character/445",
          "https://rickandmortyapi.com/api/character/446",
          "https://rickandmortyapi.com/api/character/447",
          "https://rickandmortyapi.com/api/character/448",
          "https://rickandmortyapi.com/api/character/449",
          "https://rickandmortyapi.com/api/character/450",
          "https://rickandmortyapi.com/api/character/451"
        ],
        "url": "https://rickandmortyapi.com/api/episode/13",
        "created": "2017-11-10T12:56:35.055Z"
      },
      {
        "id": 14,
        "name": "Auto Erotic Assimilation",
        "air_date": "August 9, 2015",
        "episode": "S02E03",
        "characters": [
          "https://rickandmortyapi.com/api/character/1",
          "https://rickandmortyapi.com/api/character/2",
          "https://rickandmortyapi.com/api/character/3",
          "https://rickandmortyapi.com/api/character/4",
          "https://rickandmortyapi.com/api/character/5",
          "https://rickandmortyapi.com/api/character/36",
          "https://rickandmortyapi.com/api/character/50",
          "https://rickandmortyapi.com/api/character/90",
          "https://rickandmortyapi.com/api/character/188",
          "https://rickandmortyapi.com/api/character/249",
          "https://rickandmortyapi.com/api/character/301",
          "https://rickandmortyapi.com/api/character/336",
          "https://rickandmortyapi.com/api/character/355",
          "https://rickandmortyapi.com/api/character/372"
        ],
        "url": "https://rickandmortyapi.com/api/episode/14",
        "created": "2017-11-10T12:56:35.158Z"
      },
      {
        "id": 15,
        "name": "Total Rickall",
        "air_date": "August 16, 2015",
        "episode": "S02E04",
        "characters": [
          "https://rickandmortyapi.com/api/character/1",
          "https://rickandmortyapi.com/api/character/2",
          "https://rickandmortyapi.com/api/character/3",
          "https://rickandmortyapi.com/api/character/4",
          "https://rickandmortyapi.com/api/character/5",
          "https://rickandmortyapi.com/api/character/16",
          "https://rickandmortyapi.com/api/character/31",
          "https://rickandmortyapi.com/api/character/32",
          "https://rickandmortyapi.com/api/character/76",
          "https://rickandmortyapi.com/api/character/109",
          "https://rickandmortyapi.com/api/character/128",
          "https://rickandmortyapi.com/api/character/141",
          "https://rickandmortyapi.com/api/character/154",
          "https://rickandmortyapi.com/api/character/169",
          "https://rickandmortyapi.com/api/character/236",
          "https://rickandmortyapi.com/api/character/244",
          "https://rickandmortyapi.com/api/character/248",
          "https://rickandmortyapi.com/api/character/259",
          "https://rickandmortyapi.com/api/character/262",
          "https://rickandmortyapi.com/api/character/280",
          "https://rickandmortyapi.com/api/character/324",
          "https://rickandmortyapi.com/api/character/329",
          "https://rickandmortyapi.com/api/character/352",
          "https://rickandmortyapi.com/api/character/391"
        ],
        "url": "https://rickandmortyapi.com/api/episode/15",
        "created": "2017-11-10T12:56:35.261Z"
      },
      {
        "id": 16,
        "name": "Get Schwifty",
        "air_date": "August 23, 2015",
        "episode": "S02E05",
        "characters": [
          "https://rickandmortyapi.com/api/character/1",
          "https://rickandmortyapi.com/api/character/2",
          "https://rickandmortyapi.com/api/character/3",
          "https://rickandmortyapi.com/api/character/4",
          "https://rickandmortyapi.com/api/character/5",
          "https://rickandmortyapi.com/api/character/24",
          "https://rickandmortyapi.com/api/character/47",
          "https://rickandmortyapi.com/api/character/115",
          "https://rickandmortyapi.com/api/character/124",
          "https://rickandmortyapi.com/api/character/138",
          "https://rickandmortyapi.com/api/character/161",
          "https://rickandmortyapi.com/api/character/162",
          "https://rickandmortyapi.com/api/character/172",
          "https://rickandmortyapi.com/api/character/182",
          "https://rickandmortyapi.com/api/character/199",
          "https://rickandmortyapi.com/api/character/212",
          "https://rickandmortyapi.com/api/character/213",
          "https://rickandmortyapi.com/api/character/240",
          "https://rickandmortyapi.com/api/character/241",
          "https://rickandmortyapi.com/api/character/253",
          "https://rickandmortyapi.com/api/character/255",
          "https://rickandmortyapi.com/api/character/272",
          "https://rickandmortyapi.com/api/character/309",
          "https://rickandmortyapi.com/api/character/329",
          "https://rickandmortyapi.com/api/character/331",
          "https://rickandmortyapi.com/api/character/344",
          "https://rickandmortyapi.com/api/character/346",
          "https://rickandmortyapi.com/api/character/347",
          "https://rickandmortyapi.com/api/character/395",
          "https://rickandmortyapi.com/api/character/452",
          "https://rickandmortyapi.com/api/character/454"
        ],
        "url": "https://rickandmortyapi.com/api/episode/16",
        "created": "2017-11-10T12:56:35.364Z"
      },
      {
        "id": 17,
        "name": "The Ricks Must Be Crazy",
        "air_date": "August 30, 2015",
        "episode": "S02E06",
        "characters": [
          "https://rickandmortyapi.com/api/character/1",
          "https://rickandmortyapi.com/api/character/2",
          "https://rickandmortyapi.com/api/character/3",
          "https://rickandmortyapi.com/api/character/28",
          "https://rickandmortyapi.com/api/character/34",
          "https://rickandmortyapi.com/api/character/65",
          "https://rickandmortyapi.com/api/character/129",
          "https://rickandmortyapi.com/api/character/159",
          "https://rickandmortyapi.com/api/character/160",
          "https://rickandmortyapi.com/api/character/180",
          "https://rickandmortyapi.com/api/character/181",
          "https://rickandmortyapi.com/api/character/197",
          "https://rickandmortyapi.com/api/character/207",
          "https://rickandmortyapi.com/api/character/240",
          "https://rickandmortyapi.com/api/character/266",
          "https://rickandmortyapi.com/api/character/348",
          "https://rickandmortyapi.com/api/character/364",
          "https://rickandmortyapi.com/api/character/388"
        ],
        "url": "https://rickandmortyapi.com/api/episode/17",
        "created": "2017-11-10T12:56:35.467Z"
      },
      {
        "id": 18,
        "name": "Big Trouble in Little Sanchez",
        "air_date": "September 13, 2015",
        "episode": "S02E07",
        "characters": [
          "https://rickandmortyapi.com/api/character/1",
          "https://rickandmortyapi.com/api/character/2",
          "https://rickandmortyapi.com/api/character/3",
          "https://rickandmortyapi.com/api/character/4",
          "https://rickandmortyapi.com/api/character/5",
          "https://rickandmortyapi.com/api/character/40",
          "https://rickandmortyapi.com/api/character/55",
          "https://rickandmortyapi.com/api/character/66",
          "https://rickandmortyapi.com/api/character/131",
          "https://rickandmortyapi.com/api/character/132",
          "https://rickandmortyapi.com/api/character/146",
          "https://rickandmortyapi.com/api/character/148",
          "https://rickandmortyapi.com/api/character/163",
          "https://rickandmortyapi.com/api/character/178",
          "https://rickandmortyapi.com/api/character/180",
          "https://rickandmortyapi.com/api/character/181",
          "https://rickandmortyapi.com/api/character/240",
          "https://rickandmortyapi.com/api/character/272",
          "https://rickandmortyapi.com/api/character/310",
          "https://rickandmortyapi.com/api/character/353",
          "https://rickandmortyapi.com/api/character/354",
          "https://rickandmortyapi.com/api/character/358",
          "https://rickandmortyapi.com/api/character/374",
          "https://rickandmortyapi.com/api/character/386",
          "https://rickandmortyapi.com/api/character/387",
          "https://rickandmortyapi.com/api/character/453"
        ],
        "url": "https://rickandmortyapi.com/api/episode/18",
        "created": "2017-11-10T12:56:35.569Z"
      },
      {
        "id": 19,
        "name": "Interdimensional Cable 2: Tempting Fate",
        "air_date": "September 20, 2015",
        "episode": "S02E08",
        "characters": [
          "https://rickandmortyapi.com/api/character/1",
          "https://rickandmortyapi.com/api/character/2",
          "https://rickandmortyapi.com/api/character/3",
          "https://rickandmortyapi.com/api/character/4",
          "https://rickandmortyapi.com/api/character/5",
          "https://rickandmortyapi.com/api/character/23",
          "https://rickandmortyapi.com/api/character/35",
          "https://rickandmortyapi.com/api/character/49",
          "https://rickandmortyapi.com/api/character/51",
          "https://rickandmortyapi.com/api/character/105",
          "https://rickandmortyapi.com/api/character/121",
          "https://rickandmortyapi.com/api/character/126",
          "https://rickandmortyapi.com/api/character/133",
          "https://rickandmortyapi.com/api/character/153",
          "https://rickandmortyapi.com/api/character/173",
          "https://rickandmortyapi.com/api/character/199",
          "https://rickandmortyapi.com/api/character/205",
          "https://rickandmortyapi.com/api/character/223",
          "https://rickandmortyapi.com/api/character/224",
          "https://rickandmortyapi.com/api/character/225",
          "https://rickandmortyapi.com/api/character/254",
          "https://rickandmortyapi.com/api/character/260",
          "https://rickandmortyapi.com/api/character/263",
          "https://rickandmortyapi.com/api/character/264",
          "https://rickandmortyapi.com/api/character/275",
          "https://rickandmortyapi.com/api/character/312",
          "https://rickandmortyapi.com/api/character/321",
          "https://rickandmortyapi.com/api/character/334",
          "https://rickandmortyapi.com/api/character/362",
          "https://rickandmortyapi.com/api/character/371",
          "https://rickandmortyapi.com/api/character/383",
          "https://rickandmortyapi.com/api/character/384",
          "https://rickandmortyapi.com/api/character/435",
          "https://rickandmortyapi.com/api/character/454",
          "https://rickandmortyapi.com/api/character/455",
          "https://rickandmortyapi.com/api/character/456",
          "https://rickandmortyapi.com/api/character/457",
          "https://rickandmortyapi.com/api/character/458",
          "https://rickandmortyapi.com/api/character/459",
          "https://rickandmortyapi.com/api/character/460"
        ],
        "url": "https://rickandmortyapi.com/api/episode/19",
        "created": "2017-11-10T12:56:35.669Z"
      },
      {
        "id": 20,
        "name": "Look Who's Purging Now",
        "air_date": "September 27, 2015",
        "episode": "S02E09",
        "characters": [
          "https://rickandmortyapi.com/api/character/1",
          "https://rickandmortyapi.com/api/character/2",
          "https://rickandmortyapi.com/api/character/3",
          "https://rickandmortyapi.com/api/character/4",
          "https://rickandmortyapi.com/api/character/5",
          "https://rickandmortyapi.com/api/character/26",
          "https://rickandmortyapi.com/api/character/139",
          "https://rickandmortyapi.com/api/character/202",
          "https://rickandmortyapi.com/api/character/273",
          "https://rickandmortyapi.com/api/character/341"
        ],
        "url": "https://rickandmortyapi.com/api/episode/20",
        "created": "2017-11-10T12:56:35.772Z"
      },
    {
      "id": 21,
      "name": "The Wedding Squanchers",
      "air_date": "October 4, 2015",
      "episode": "S02E10",
      "characters": [
        "https://rickandmortyapi.com/api/character/1",
        "https://rickandmortyapi.com/api/character/2",
        "https://rickandmortyapi.com/api/character/3",
        "https://rickandmortyapi.com/api/character/4",
        "https://rickandmortyapi.com/api/character/5",
        "https://rickandmortyapi.com/api/character/23",
        "https://rickandmortyapi.com/api/character/47",
        "https://rickandmortyapi.com/api/character/55",
        "https://rickandmortyapi.com/api/character/75",
        "https://rickandmortyapi.com/api/character/102",
        "https://rickandmortyapi.com/api/character/130",
        "https://rickandmortyapi.com/api/character/131",
        "https://rickandmortyapi.com/api/character/133",
        "https://rickandmortyapi.com/api/character/194",
        "https://rickandmortyapi.com/api/character/199",
        "https://rickandmortyapi.com/api/character/203",
        "https://rickandmortyapi.com/api/character/240",
        "https://rickandmortyapi.com/api/character/244",
        "https://rickandmortyapi.com/api/character/256",
        "https://rickandmortyapi.com/api/character/261",
        "https://rickandmortyapi.com/api/character/308",
        "https://rickandmortyapi.com/api/character/309",
        "https://rickandmortyapi.com/api/character/311",
        "https://rickandmortyapi.com/api/character/331",
        "https://rickandmortyapi.com/api/character/344",
        "https://rickandmortyapi.com/api/character/358",
        "https://rickandmortyapi.com/api/character/362",
        "https://rickandmortyapi.com/api/character/379",
        "https://rickandmortyapi.com/api/character/454"
      ],
      "url": "https://rickandmortyapi.com/api/episode/21",
      "created": "2017-11-10T12:56:35.875Z"
    }
  ]
}
